Workshop Day 3 Improving & Interpreting Models
…
.pull-right[
## Hyperparameter Space

Collectively, the whole grid is the entire searched

<u>hyperparameter *SPACE*</u> 

```r
all_hypers
```

```
## # A tibble: 2,002 × 3
##    num.tree  mtry node_sizes
##       <dbl> <dbl>      <dbl>
##  1      470     2          2
##  2      470     2          3
##  3      470     2          4
##  4      470     2          5
##  5      470     2          6
##  6      470     2          7
##  7      470     2          8
##  8      470     3          2
##  9      470     3          3
## 10      470     3          4
## # … with 1,992 more rows
```
…
