Day 1 Recursive Partitioning & Decision Trees
…
---

# Predictions with Decision Trees

Let's peak at the data we made:

```r
pred_df %>% 
  select(predicted, survived) %>% 
  tibble()
```

```
## # A tibble: 328 × 2
##    predicted survived
##    <fct>     <fct>   
##  1 survived  survived
##  2 died      died    
##  3 survived  survived
##  4 survived  survived
##  5 died      died    
##  6 survived  survived
##  7 survived  survived
##  8 survived  survived
##  9 died      died    
## 10 survived  survived
## # … with 318 more rows
```
…
