Day 1 Pre-Workshop R Refresher
…
---

.right[**`R` Basics**]

# Inspecting data

```r
tibble(dat)
```

```
## # A tibble: 152 × 48
##    count…¹  year pa_nu…² pa_nu…³ sh_dy…⁴ sh_dy…⁵ sh_dy…⁶ sh_dy…⁷ sh_dt…⁸ sh_dt…⁹
##    <chr>   <int>   <dbl>   <dbl>   <dbl>   <dbl>   <dbl>   <dbl>   <int>   <int>
##  1 Indone…  2000   1387.   8422.     5.7     6.2     3.7     6     24050   27828
##  2 Indone…  2001   1550.  10261.     5.7     6.2     3.6     5.7   24341   27698
##  3 Indone…  2002   1616.   9311.     5.7     6.3     3.5     5.5   24476   27545
##  4 Indone…  2003   1672.   8577.     5.7     6.2     3.4     5.3   24443   27417
##  5 Indone…  2004   1767.   8939.     8.1     8.7     6.1     9     34325   38237
##  6 Indone…  2005   1959.   9705.     5.7     6.2     3.3     4.8   23995   27415
##  7 Indone…  2006   2168.   9159.     5.7     6.1     3.2     4.7   24197   26949
##  8 Indone…  2007   2349.   9141      5.6     6.1     3.1     4.5   24184   26441
##  9 Indone…  2008   2723.   9699.     5.6     6       3       4.3   23884   25951
## 10 Indone…  2009   2930.  10390.     5.6     6       2.9     4.1   23339   25681
## # … with 142 more rows, 38 more variables: sh_dth_1014 <int>,
## #   sh_dth_0509 <int>, se_ter_enrr <dbl>, se_sec_durs <int>, se_sec_ages <int>,
## #   se_prm_tchr <int>, se_prm_enrr <dbl>, se_prm_enrl <int>, se_prm_durs <int>,
## #   se_prm_ages <int>, se_pre_enrr <dbl>, se_pre_durs <int>, se_com_durs <int>,
## #   st_int_arvl <int>, it_net_bbnd <int>, it_mlt_main <int>, it_cel_sets <int>,
## #   is_air_psgr <dbl>, is_air_dprt <dbl>, bm_gsr_totl_cd <dbl>,
## #   bn_fin_totl_cd <dbl>, bx_gsr_totl_cd <dbl>, bx_pef_totl_cd_wd <dbl>, …
```
…
